userid: oyoborus
passwd: jikaru12
//====================
server_name: Oyoborus RO
wisp_server_name: Oyoborus RO
login_ip: 35.240.231.25
char_ip: 35.240.231.25
//====================// for renewal
start_point: iz_int,97,90
start_point_doram: iz_int,97,90
//====================
char_name_letters: abcdefghijklmnopqrstuvwxyz ABCDEFGHIJKLMNOPQRSTUVWXYZ1234567890'space'
char_del_delay: 0
char_del_option: 1                                                                             
char_del_restriction: 0
//====================
pincode_enabled: no